{
    "$schema": "http://json-schema.org/draft-07/schema",
    "$id": "/scheme/model/auth.json",
    "definitions": {
        "user": {
            "type": "object",
            "properties": {
                "id": {
                    "title": "ID",
                    "type": "number"
                },
                "username": {
                    "title": "Username",
                    "type": "string"
                },
                "type": {
                    "title": "Type",
                    "type": "string",
                    "enum": [ "SPR", "ADM", "USR" ]
                },
                "name": {
                    "title": "Name",
                    "type": "string"
                },
                "email": {
                    "title": "Email",
                    "type": "string",
                    "format": "email"
                },
                "phoneNumber": {
                    "title": "Phone Number",
                    "type": "string"
                },
                "active": {
                    "title": "Active",
                    "type": "boolean"
                }
            },
            "required": [
                "id",
                "username",
                "type",
                "name",
                "email",
                "phoneNumber"
            ]
        }
    },
    "type": "object",
    "properties": {
        "token": {
            "title": "Token",
            "type": "string"
        },
        "user": {
            "title": "User",
            "$ref": "#/definitions/user"
        }
    },
    "required": [ "token", "user" ]
}
